COMPSCIX 415.2 Homework 5/Midterm
…
2)Create a new column in the diamonds data set called price_per_carat that shows the price of each diamond per carat (hint: divide). Only show me the code, not the output.

new_diamonds <- mutate(diamonds, price_per_carat= price/carat )
new_diamonds

## # A tibble: 53,940 x 11
##    carat cut       color clarity depth table price     x     y     z
##    <dbl> <ord>     <ord> <ord>   <dbl> <dbl> <int> <dbl> <dbl> <dbl>
##  1 0.23  Ideal     E     SI2      61.5    55   326  3.95  3.98  2.43
##  2 0.21  Premium   E     SI1      59.8    61   326  3.89  3.84  2.31
##  3 0.23  Good      E     VS1      56.9    65   327  4.05  4.07  2.31
##  4 0.290 Premium   I     VS2      62.4    58   334  4.2   4.23  2.63
##  5 0.31  Good      J     SI2      63.3    58   335  4.34  4.35  2.75
##  6 0.24  Very Good J     VVS2     62.8    57   336  3.94  3.96  2.48
##  7 0.24  Very Good I     VVS1     62.3    57   336  3.95  3.98  2.47
##  8 0.26  Very Good H     SI1      61.9    55   337  4.07  4.11  2.53
##  9 0.22  Fair      E     VS2      65.1    61   337  3.87  3.78  2.49
## 10 0.23  Very Good H     VS1      59.4    61   338  4     4.05  2.39
## # ... with 53,930 more rows, and 1 more variable: price_per_carat <dbl>
…
## # A tibble: 1 x 1
##       n
##   <int>
## 1    46

Which city, month and year had the highest number of sales?

txhousing %>% 
  group_by(city,year,month) %>%
  summarise(
    maxsales= max(sales)
  )

## # A tibble: 8,602 x 4
## # Groups:   city, year [?]
##    city     year month maxsales
##    <chr>   <int> <int>    <dbl>
##  1 Abilene  2000     1       72
##  2 Abilene  2000     2       98
##  3 Abilene  2000     3      130
##  4 Abilene  2000     4       98
##  5 Abilene  2000     5      141
##  6 Abilene  2000     6      156
##  7 Abilene  2000     7      152
##  8 Abilene  2000     8      131
##  9 Abilene  2000     9      104
## 10 Abilene  2000    10      101
## # ... with 8,592 more rows
…
What proportion of sales is missing for each city?

txhousing %>%
  group_by(city) %>%
summarise(missingsales=sum(is.na(sales)))

## # A tibble: 46 x 2
##    city                  missingsales
##    <chr>                        <int>
##  1 Abilene                          0
##  2 Amarillo                         0
##  3 Arlington                        0
##  4 Austin                           0
##  5 Bay Area                         0
##  6 Beaumont                         0
##  7 Brazoria County                 14
##  8 Brownsville                      2
##  9 Bryan-College Station            0
## 10 Collin County                    0
## # ... with 36 more rows

Looking at only the cities and months with greater than 500 sales:

txhousing %>%
  group_by(city) %>%
  summarise(sales = sum(sales)) %>%
  filter(sales > 500)

## # A tibble: 26 x 2
##    city                   sales
##    <chr>                  <dbl>
##  1 Abilene                28141
##  2 Amarillo               44628
##  3 Arlington              79285
##  4 Austin                373381
##  5 Bay Area               93989
##  6 Beaumont               33110
##  7 Bryan-College Station  34921
##  8 Collin County         202892
##  9 Dallas                816122
## 10 Denton County         117405
## # ... with 16 more rows

Are the distributions of the median sales price (column name median), when grouped by city, different? The same? Show your work.

txhousing %>%
  group_by(city) %>%
  summarise(
    sales = sum(sales),
    median = median(sales)) %>%
  filter(sales > 500)

## # A tibble: 26 x 3
##    city                   sales median
##    <chr>                  <dbl>  <dbl>
##  1 Abilene                28141  28141
##  2 Amarillo               44628  44628
##  3 Arlington              79285  79285
##  4 Austin                373381 373381
##  5 Bay Area               93989  93989
##  6 Beaumont               33110  33110
##  7 Bryan-College Station  34921  34921
##  8 Collin County         202892 202892
##  9 Dallas                816122 816122
## 10 Denton County         117405 117405
## # ... with 16 more rows
…
