COMPSCIX 415.2 Homework 4 - Cuesta
…
##  Attaching packages  tidyverse 1.2.1 

##  ggplot2 2.2.1      purrr   0.2.5
##  tibble  1.4.2      dplyr   0.7.6
##  tidyr   0.8.1      stringr 1.3.1
##  readr   1.1.1      forcats 0.3.0

##  Conflicts  tidyverse_conflicts() 
##  dplyr::filter() masks stats::filter()
##  dplyr::lag()    masks stats::lag()

flights

## # A tibble: 336,776 x 19
##     year month   day dep_time sched_dep_time dep_delay arr_time
##    <int> <int> <int>    <int>          <int>     <dbl>    <int>
##  1  2013     1     1      517            515         2      830
##  2  2013     1     1      533            529         4      850
##  3  2013     1     1      542            540         2      923
##  4  2013     1     1      544            545        -1     1004
##  5  2013     1     1      554            600        -6      812
##  6  2013     1     1      554            558        -4      740
##  7  2013     1     1      555            600        -5      913
##  8  2013     1     1      557            600        -3      709
##  9  2013     1     1      557            600        -3      838
## 10  2013     1     1      558            600        -2      753
## # ... with 336,766 more rows, and 12 more variables: sched_arr_time <int>,
## #   arr_delay <dbl>, carrier <chr>, flight <int>, tailnum <chr>,
## #   origin <chr>, dest <chr>, air_time <dbl>, distance <dbl>, hour <dbl>,
## #   minute <dbl>, time_hour <dttm>

flights %>%
  group_by(dest) %>%
  summarise(n = length(dest))

## # A tibble: 105 x 2
##    dest      n
##    <chr> <int>
##  1 ABQ     254
##  2 ACK     265
##  3 ALB     439
##  4 ANC       8
##  5 ATL   17215
##  6 AUS    2439
##  7 AVL     275
##  8 BDL     443
##  9 BGR     375
## 10 BHM     297
## # ... with 95 more rows

Look at the number of cancelled flights per day. Is there a pattern? Is the proportion of cancelled flights related to the average delay?

results <-
  flights %>%
  mutate(canceled_flights = (is.na(arr_delay) | is.na(dep_delay))) %>%
  group_by(year, month, day) %>%
  summarise(prop_canceled = mean(canceled_flights),
            avg_delay = mean(dep_delay, na.rm = TRUE))

results

## # A tibble: 365 x 5
## # Groups:   year, month [?]
##     year month   day prop_canceled avg_delay
##    <int> <int> <int>         <dbl>     <dbl>
##  1  2013     1     1       0.0131      11.5 
##  2  2013     1     2       0.0159      13.9 
##  3  2013     1     3       0.0153      11.0 
##  4  2013     1     4       0.00765      8.95
##  5  2013     1     5       0.00417      5.73
##  6  2013     1     6       0.00361      7.15
##  7  2013     1     7       0.00322      5.42
##  8  2013     1     8       0.00779      2.55
##  9  2013     1     9       0.00998      2.28
## 10  2013     1    10       0.00322      2.84
## # ... with 355 more rows
…
